{
    "misc": {
        "step_x": "Paso [número]",
        "step_x_description": "Paso [número]:  [descripción]",
        "overview": {
            "tutorial_x_title": "Tutorial [número]: [título]",
            "summary": "F-Droid es una tienda de aplicaciones independiente y basada en la comunidad para Android que es completamente gratuita y de código abierto. Dentro de F-Droid puedes navegar por más de 1,200 aplicaciones de código abierto, buscar e instalar aplicaciones desde repositorios creados, o crear tus propios repositorios. Abre f-droid.org en su teléfono Android para descargar la aplicación y comenzar!",
            "title": "Lo que puedes hacer con F-Droid"
        },
        "option_x_description": "Opción [número]: [descripción]"
    },
    "add_repo": {
        "no_internet": "No hay internet? No hay problema Aprende <a href=\"../swap/\"> 1 Como enviar y recibir aplicaciones sin conexión. </a> 2",
        "title": "Como agregar un repositorio a F-Droid",
        "overview": {
            "summary": "Para obtener más, agrega un repositorio a F-Droid. Un repositorio es una colección de contenido curado. Puedes obtener repositorios de personas directamente de ellos. Los desarrolladores suelen vincular sus repositorios F-Droid desde su sitio web. Los capacitadores a menudo comparten enlaces a repositorios por correo electrónico, Facebook o Twitter.",
            "title": "Obtenga más contenido."
        },
        "scan_qr_code": {
            "related_tutorial": "También podría estar interesado en: <a href=\"../swap/\">Enviar y recibir aplicaciones in conexión </a>",
            "steps": {
                "step_1": "Una vez que se muestre el código QR para el repositorio, escanea el código QR con una aplicación de QR escáner.",
                "step_3": "Si no tiene la opción de abrir el enlace con F-Droid, cierra la aplicación del escáner QR y abre la aplicación F-Droid.",
                "step_2": "Toca el enlace. Si se te da la opción, abre el enlace usando F-Droid. Luego sigue las instrucciones. Si esto funciona, ¡ya terminaste! De lo contrario, continúe con el siguiente paso.",
                "step_5": "En la pantalla Repositorios, toca el ícono '+' en la esquina superior.",
                "step_4": "Dentro de F-Droid, toca 'Configuración'. En \"Mis aplicaciones\", selecciona \"Repositorios\".",
                "step_6": "La dirección repo se completará automáticamente. Toca \"Habilitar\". Nota: El repositorio se guardarán en los repositorios de F-Droid, pero no se instalarán aplicaciones hasta que no elija e instale manualmente."
            },
            "description": "Si alguien cercano a ti tiene un repositorio que deseas, puedes escanear el código QR repo desde su teléfono. O bien, si se muestra un código QR para un repositorio en un sitio web, escanealo en tu teléfono para agregarlo.",
            "short_summary": "Escanear código QR",
            "title": "Escanear y Código QR desde otro dispositivo"
        },
        "intro": "Puede agregar un informe a F-Droid escaneando el código QR del repositorio desde otro dispositivo o abriendo un enlace de repo en su teléfono. Comienza por descargar e instalar la aplicación F-Droid en su teléfono Android.",
        "open_repo_link": {
            "steps": {
                "step_1": "Descarga en instala la aplicación F-Droid en tu teléfono",
                "step_3": "Cuando tengas abierto el enlace, tocs el botón 'Agregar a F-Droid'.",
                "step_2": "Haga clic en el enlace y ábralo en un navegador web en su teléfono.",
                "step_5": "La vista 'Agregar nuevo repositorio' se mostrará con la dirección del depósito prellenada. Toca \"Ok\" para agregarlo.",
                "step_4": "Toca el botón 'Tengo el F-Droid'. La aplicación F-Droid se abrirá.",
                "step_7": "Toque un repositorio para ver su contenido.",
                "step_6": "Se agregará su nuevo repositorio. Para ver una lista de sus repositorios, abra 'Configuración'. Seleccione 'Repositorios'.",
                "step_8": "Seleccione las aplicaciones que le gustaría tener e instálelas en su teléfono."
            },
            "description": "Alguien te ha enviado un enlace a su repositorio por correo electrónico, Facebook, Twitter o texto. Desea agregar estas aplicaciones a tu aplicación F-Droid. Puedes agregar fácilmente un repositorio a F-Droid en su teléfono Android abriendo su enlace",
            "short_summary": "Abre el link de el Repositorio",
            "title": "Abre el link del Repositorio en tu telefono"
        }
    },
    "swap": {
        "step_1": "Abre F-Droid. Toca \"Cerrar\" desde el menú en la parte inferior de tu pantalla.",
        "step_3": "Una vez que se encuentran las personas, tanto tu como el contacto deben seleccionarse entre sí.",
        "step_2": "Toca \"Buscar personas cerca de mí\". La aplicación comenzará a buscar automáticamente.",
        "step_5": "Toca el botón '->'.",
        "step_4": "Una vez conectado, elije las aplicaciones que deseas compartir con tu contacto.",
        "step_7": "Toca el botón \"Instalar\" al lado de las aplicaciones que deseas instalar.",
        "title": "Cómo enviar y recibir aplicaciones fuera de línea",
        "step_9": "Una vez instaladas, sus aplicaciones estarán disponibles en la galería de aplicaciones de Android y en tu aplicación F-Droid en la lista de las aplicaciones instaladas.",
        "overview": {
            "summary": "No hay internet? No hay problema F-Droid Cercania te ofrece la posibilidad de enviar y recibir contenido a personas en la misma habitación.",
            "title": "Envía y recibe aplicaciones sin conexión."
        },
        "step_6": "Se le pedirá a una persona que confirme la solicitud para conectarse.",
        "all_devices_need_fdroid": "Todos los dispositivos necesitan F-Droid descargado e instalado antes de comenzar. Todos los dispositivos deben seguir los pasos a continuación.",
        "related_tutorial": "Quiza también te interese: <a href=\"../create-repo/\"> 1 Como crear un Repo</a> 2",
        "intro": "No hay internet? No hay problema Descarga aplicaciones de personas cercanas a ti.",
        "step_8": "Toca \"Instalar\" una vez más. Luego sigue las instrucciones para completar el proceso de instalación.",
        "step_10": "Para acceder a tus aplicaciones instaladas, abre la configuración de F-Droid y seleccione 'Administrar aplicaciones instaladas' en 'Mis aplicaciones'."
    },
    "create_repo": {
        "download_and_install": {
            "steps": {
                "step_1": "Descarga e instala la aplicación web Repomaker en su PC.",
                "step_3": "Crea un nuevo repositorio y asígnale un nombre.",
                "step_2": "Descargue e instale la aplicación web Repomaker en su PC.",
                "step_5": "Haz clic en el botón 'Agregar' al lado de los elementos que deseas agregar. Cuando hayas terminado, haz clic en la flecha 'atrás' para regresar a su repositorio.",
                "step_4": "Elije agregar aplicaciones de la galería y repositorios disponibles, o sube tus propios archivos. Haz clic en el botón 'Agregar de la galería' para elegir entre el contenido disponible.",
                "step_6": "Tus aplicaciones se mostrarán en tu vista de contenido repo."
            },
            "title": "Descargue e instale Repomaker para comenzar a crear"
        },
        "title": "Como crear un Repositorio",
        "overview": {
            "summary": "Crea tu repositorio personalizado de aplicaciones. Usa F-Droid para distribuir contenido. Los capacitadores usan repositorios para compartir fácilmente una colección de recursos y aplicaciones con los participantes en una capacitación donde no existe una conexión a Internet confiable. Los desarrolladores usan los repositorios para distribuir sus aplicaciones a audiencias específicas.",
            "title": "Agregue sus propias aplicaciones y archivos."
        },
        "share_repo": {
            "steps": {
                "step_1": "Con el repositorio que deseas compartir abierto, haz clic en 'Compartir' en el menú. Notas: Debes configurar un lugar para almacenar tu repositorio antes de compartirlo. Las instrucciones sobre cómo hacer esto están en el Paso 2.",
                "step_3": "Elije la opción de almacenamiento que mejor se adapte a tus necesidades. Una vez que tengas almacenamiento, ¡estás listo para compartir! Regresa a 'Compartir'.",
                "step_2": "Se te pedirá que configure el almacenamiento para publicar tu repositorio y antes de compartirlo. Si no ves esta página, ve al Paso 4.",
                "step_5": "La opción 'Ver informe' te permite ver lo que acabas de publicar o compartir.",
                "step_4": "Elije copiar el enlace y enviarlo directamente a las personas a través de correo electrónico o texto, o compartir tu repositorio en Facebook o Twitter. Cuando abras el enlace a tu repositorio, deberán agregarlo a un dispositivo Android para acceder a las aplicaciones en el repositorio. Consulta <a href='../add-repo/'> Primero para agregar un informe a F-Droid </a> 2 para obtener más información."
            },
            "title": "Personaliza tu Repositorio"
        },
        "update_repo": {
            "steps": {
                "step_1": "Si agregas aplicaciones de la galería, se actualizan automáticamente cuando la fuente agrega nuevas versiones. Para los archivos que subiste, puedes arrastrar y soltar versiones actualizadas en la vista repo.",
                "step_3": "Desplázate hacia abajo a  versiones. Luego, agrega una nueva versión en la sección 'Historial de versiones'.",
                "step_2": "Alternativamente, puedes abrir un solo elemento para agregar una nueva versión. Selecciona editar.",
                "step_4": "Luego, agrega una nueva versión en la sección 'Historial de versiones'."
            },
            "title": "Actualiza tu Repositorio"
        },
        "related_tutorial": "Quiza tambien te interese:  <a href='../add-repo/'>1 How to Add a Repo to F-Droid</a>2",
        "intro": "¿No puedes encontrar lo que estás buscando? ¿Por qué no creas tu propia colección personalizada de aplicaciones y archivos usando Repomaker? Descargue la aplicación web de Repomaker en su computadora para comenzar.",
        "customize_repo": {
            "steps": {
                "step_1": "Haz clic en un elemento para abrir sus detalles.",
                "step_3": "Personaliza tu contenido para adaptarse a tu público objetivo. Nota: Los cambios que realices se aplicaran en tu repositorio únicamente. No se actualizarán para la fuente original. Por favor se respetuoso al personalizar la información para contenido que no es tuya.",
                "step_2": "Haz clic en 'Editar'.",
                "step_4": "Todos tus cambios se guardan automaticamente."
            },
            "description": "Puedes editar la aplicación y los resúmenes de los archivos para que resulte comprensible a tu público objetivo. Puedes editar el idioma para adaptarlo a un país especifico. Luego, comparte el repositorio sin problemas con los asistentes antes de las conferencias y capacitaciones.",
            "title": "Personaliza tu Repositorio"
        }
    }
}
